waveform_trace.vcd
$date
     May 27, 2023       21:22:38
$end

$version
 SystemC 2.3.4-Accellera --- May 25 2023 20:59:51
$end

$timescale
     1 ns
$end

$scope module SystemC $end
$var wire    1  aaaaa  clock       $end
$var wire    1  aaaab  reset       $end
$var real    1  aaaac  x       $end
$var real    1  aaaad  y       $end
$upscope $end
$enddefinitions  $end

$comment
All initial values are dumped below at time 0 sec = 0 timescale units.
$end

$dumpvars
0aaaaa
0aaaab
r1 aaaac
r0.166700005531311 aaaad
$end

#5
1aaaaa
r0.1111388951539993 aaaad

#10
0aaaaa

#15
1aaaaa
r0.07409630715847015 aaaad

#20
0aaaaa

#25
1aaaaa
r0 aaaac
r-0.06173889338970184 aaaad

#30
0aaaaa

#35
1aaaaa
r-0.004118726123124361 aaaad

#40
0aaaaa

#45
1aaaaa
r0.02195034362375736 aaaad

#50
0aaaaa

#55
1aaaaa
r-0.005943278316408396 aaaad

#60
0aaaaa

#65
1aaaaa
r-0.005335154943168163 aaaad

#70
0aaaaa

#75
1aaaaa
r0.003759101964533329 aaaad

#80
0aaaaa

#85
1aaaaa
r0.0005252984701655805 aaaad

#90
0aaaaa

#95
1aaaaa
r-0.001427990733645856 aaaad

#100
0aaaaa

#105
1aaaaa
r0.0003008673375006765 aaaad

#110
0aaaaa

#115
1aaaaa
r0.0003756702062673867 aaaad

